Extract members of an IGO — igo_members • igoR
…
#>    <chr>  <dbl> <chr>       <chr>          <dbl> <dbl> <fct>           <chr>    
#>  1 EU       200 uk          United Kingdom  1993     1 Full Membership European…
#>  2 EU       205 ireland     Ireland         1993     1 Full Membership European…
#>  3 EU       210 netherlands Netherlands     1993     1 Full Membership European…
#>  4 EU       211 belgium     Belgium         1993     1 Full Membership European…
#>  5 EU       212 luxembourg  Luxembourg      1993     1 Full Membership European…
#>  6 EU       220 france      France          1993     1 Full Membership European…
#>  7 EU       230 spain       Spain           1993     1 Full Membership European…
#>  8 EU       235 portugal    Portugal        1993     1 Full Membership European…
#>  9 EU       255 germany     Germany         1993     1 Full Membership European…
#> 10 EU       325 italy       Italy           1993     1 Full Membership European…
#> 11 EU       350 greece      Greece          1993     1 Full Membership European…
#> 12 EU       390 denmark     Denmark         1993     1 Full Membership European…
igo_members("EU") %>% as_tibble()
#> # A tibble: 28 × 8
#>    ioname ccode state       statenme        year value category        orgname  
#>    <chr>  <dbl> <chr>       <chr>          <dbl> <dbl> <fct>           <chr>    
#>  1 EU       200 uk          United Kingdom  2014     1 Full Membership European…
#>  2 EU       205 ireland     Ireland         2014     1 Full Membership European…
#>  3 EU       210 netherlands Netherlands     2014     1 Full Membership European…
#>  4 EU       211 belgium     Belgium         2014     1 Full Membership European…
#>  5 EU       212 luxembourg  Luxembourg      2014     1 Full Membership European…
#>  6 EU       220 france      France          2014     1 Full Membership European…
#>  7 EU       230 spain       Spain           2014     1 Full Membership European…
#>  8 EU       235 portugal    Portugal        2014     1 Full Membership European…
#>  9 EU       255 germany     Germany         2014     1 Full Membership European…
#> 10 EU       290 poland      Poland          2014     1 Full Membership European…
#> # ℹ 18 more rows
…
# Extract different status
igo_members("ACCT", status = c("Associate Membership", "Observer")) %>%
  as_tibble()
#> # A tibble: 25 × 8
#>    ioname ccode state       statenme            year value category      orgname
#>    <chr>  <dbl> <chr>       <chr>              <dbl> <dbl> <fct>         <chr>  
#>  1 ACCT     347 kosovo      Kosovo              2014     2 Associate Me… Franco…
#>  2 ACCT     352 cyprus      Cyprus              2014     2 Associate Me… Franco…
#>  3 ACCT     694 qatar       Qatar               2014     2 Associate Me… Franco…
#>  4 ACCT      42 domrepublic Dominican Republic  2014     3 Observer      Franco…
#>  5 ACCT      70 mexico      Mexico              2014     3 Observer      Franco…
#>  6 ACCT      94 costarica   Costa Rica          2014     3 Observer      Franco…
#>  7 ACCT     165 uruguay     Uruguay             2014     3 Observer      Franco…
#>  8 ACCT     290 poland      Poland              2014     3 Observer      Franco…
#>  9 ACCT     305 austria     Austria             2014     3 Observer      Franco…
#> 10 ACCT     310 hungary     Hungary             2014     3 Observer      Franco…
#> # ℹ 15 more rows
…
# Use countrycodes package to get additional codes
if (requireNamespace("countrycode", quietly = TRUE)) {
  library(countrycode)
  EU <- igo_members("EU")
  EU$iso3c <- countrycode(EU$ccode, origin = "cown", destination = "iso3c")

  EU$continent <- countrycode(EU$ccode,
    origin = "cown",
    destination = "continent"
  )

  tibble(EU)
}
#> # A tibble: 28 × 10
#>    ioname ccode state      statenme  year value category orgname iso3c continent
#>    <chr>  <dbl> <chr>      <chr>    <dbl> <dbl> <fct>    <chr>   <chr> <chr>    
#>  1 EU       200 uk         United …  2014     1 Full Me… Europe… GBR   Europe   
#>  2 EU       205 ireland    Ireland   2014     1 Full Me… Europe… IRL   Europe   
#>  3 EU       210 netherlan… Netherl…  2014     1 Full Me… Europe… NLD   Europe   
#>  4 EU       211 belgium    Belgium   2014     1 Full Me… Europe… BEL   Europe   
#>  5 EU       212 luxembourg Luxembo…  2014     1 Full Me… Europe… LUX   Europe   
#>  6 EU       220 france     France    2014     1 Full Me… Europe… FRA   Europe   
#>  7 EU       230 spain      Spain     2014     1 Full Me… Europe… ESP   Europe   
#>  8 EU       235 portugal   Portugal  2014     1 Full Me… Europe… PRT   Europe   
#>  9 EU       255 germany    Germany   2014     1 Full Me… Europe… DEU   Europe   
#> 10 EU       290 poland     Poland    2014     1 Full Me… Europe… POL   Europe   
#> # ℹ 18 more rows
…
