…
[state_year_format3](https://dieghernan.github.io/igoR/reference/state_year_format3.md),
[states2016](https://dieghernan.github.io/igoR/reference/states2016.md),
[`igo_search()`](https://dieghernan.github.io/igoR/reference/igo_search.md).

## Examples

``` r
usa_esp <- igo_dyadic("USA", "Spain")
nrow(usa_esp)
#> [1] 199
ncol(usa_esp)
#> [1] 546

dplyr::tibble(usa_esp)
#> # A tibble: 199 × 546
#>    dyadid ccode1 stateabb1 statenme1    state1 ccode2 stateabb2 statenme2 state2
#>     <dbl>  <int> <chr>     <chr>        <chr>   <int> <chr>     <chr>     <chr> 
#>  1   2002      2 USA       United Stat… usa       230 SPN       Spain     spain 
#>  2   2002      2 USA       United Stat… usa       230 SPN       Spain     spain 
#>  3   2002      2 USA       United Stat… usa       230 SPN       Spain     spain 
#>  4   2002      2 USA       United Stat… usa       230 SPN       Spain     spain 
#>  5   2002      2 USA       United Stat… usa       230 SPN       Spain     spain 
#>  6   2002      2 USA       United Stat… usa       230 SPN       Spain     spain 
#>  7   2002      2 USA       United Stat… usa       230 SPN       Spain     spain 
#>  8   2002      2 USA       United Stat… usa       230 SPN       Spain     spain 
#>  9   2002      2 USA       United Stat… usa       230 SPN       Spain     spain 
#> 10   2002      2 USA       United Stat… usa       230 SPN       Spain     spain 
#> # ℹ 189 more rows
#> # ℹ 537 more variables: year <dbl>, ccode <dbl>, state <dbl>, aaaid <dbl>,
#> #   aacb <dbl>, aalco <dbl>, aaro <dbl>, aata <dbl>, aatpo <dbl>, abeda <dbl>,
#> #   abepseac <dbl>, acc <dbl>, acct <dbl>, acdt <dbl>, aci <dbl>, acml <dbl>,
#> #   acp <dbl>, acpeu <dbl>, acs <dbl>, acso <dbl>, acssrb <dbl>, acu <dbl>,
#> #   acwl <dbl>, afesd <dbl>, afeximb <dbl>, afgec <dbl>, afpu <dbl>,
#> #   afrand <dbl>, afristat <dbl>, afspc <dbl>, afte <dbl>, agc <dbl>, …
…
