…
[`countrycode::countrycode()`](https://vincentarelbundock.github.io/countrycode/reference/countrycode.html)
to convert between different country code schemes.

Other datasets:
[`igo_recode_igoyear()`](https://dieghernan.github.io/igoR/dev/reference/igo_recode.md),
[`igo_year_format3`](https://dieghernan.github.io/igoR/dev/reference/igo_year_format3.md),
[`states2016`](https://dieghernan.github.io/igoR/dev/reference/states2016.md)

## Examples

``` r
data("state_year_format3")
dplyr::tibble(state_year_format3)
#> # A tibble: 15,557 × 537
#>    ccode  year state aaaid  aacb aalco  aaro  aata aatpo abeda abepseac   acc
#>    <dbl> <dbl> <chr> <dbl> <dbl> <dbl> <dbl> <dbl> <dbl> <dbl>    <dbl> <dbl>
#>  1     2  1816 usa      -1    -1    -1    -1    -1    -1    -1       -1    -1
#>  2     2  1817 usa      -1    -1    -1    -1    -1    -1    -1       -1    -1
#>  3     2  1818 usa      -1    -1    -1    -1    -1    -1    -1       -1    -1
#>  4     2  1819 usa      -1    -1    -1    -1    -1    -1    -1       -1    -1
#>  5     2  1820 usa      -1    -1    -1    -1    -1    -1    -1       -1    -1
#>  6     2  1821 usa      -1    -1    -1    -1    -1    -1    -1       -1    -1
#>  7     2  1822 usa      -1    -1    -1    -1    -1    -1    -1       -1    -1
#>  8     2  1823 usa      -1    -1    -1    -1    -1    -1    -1       -1    -1
#>  9     2  1824 usa      -1    -1    -1    -1    -1    -1    -1       -1    -1
#> 10     2  1825 usa      -1    -1    -1    -1    -1    -1    -1       -1    -1
#> # ℹ 15,547 more rows
#> # ℹ 525 more variables: acct <dbl>, acdt <dbl>, aci <dbl>, acml <dbl>,
#> #   acp <dbl>, acpeu <dbl>, acs <dbl>, acso <dbl>, acssrb <dbl>, acu <dbl>,
#> #   acwl <dbl>, afesd <dbl>, afeximb <dbl>, afgec <dbl>, afpu <dbl>,
#> #   afrand <dbl>, afristat <dbl>, afspc <dbl>, afte <dbl>, agc <dbl>,
#> #   agpundo <dbl>, aic <dbl>, aidc <dbl>, aido <dbl>, aioec <dbl>, aipo <dbl>,
#> #   aitic <dbl>, alo <dbl>, alsf <dbl>, amco <dbl>, amcow <dbl>, amf <dbl>, …
```
